{
  "acometida": {
    "height": 24,
    "pixelRatio": 1,
    "width": 24,
    "x": 0,
    "y": 0
  },
  "deposito": {
    "height": 24,
    "pixelRatio": 1,
    "width": 24,
    "x": 24,
    "y": 0
  },
  "fault": {
    "height": 24,
    "pixelRatio": 1,
    "width": 24,
    "x": 0,
    "y": 24
  },
  "hidrante": {
    "height": 24,
    "pixelRatio": 1,
    "width": 24,
    "x": 24,
    "y": 24
  },
  "infrastructure_update": {
    "height": 24,
    "pixelRatio": 1,
    "width": 24,
    "x": 48,
    "y": 0
  },
  "leak": {
    "height": 24,
    "pixelRatio": 1,
    "width": 24,
    "x": 72,
    "y": 0
  },
  "maintenance": {
    "height": 24,
    "pixelRatio": 1,
    "width": 24,
    "x": 48,
    "y": 24
  },
  "pozo": {
    "height": 24,
    "pixelRatio": 1,
    "width": 24,
    "x": 72,
    "y": 24
  },
  "sensor-agua": {
    "height": 24,
    "pixelRatio": 1,
    "width": 24,
    "x": 0,
    "y": 48
  },
  "valvula": {
    "height": 24,
    "pixelRatio": 1,
    "width": 24,
    "x": 24,
    "y": 48
  }
}